verilog xil_defaultlib --include "../../../ipstatic" \
"../../../../demo03.srcs/ip/clk_wiz_0/clk_wiz_0_clk_wiz.v" \
"../../../../demo03.srcs/ip/clk_wiz_0/clk_wiz_0.v" \

verilog xil_defaultlib "glbl.v"

nosort
