Copyright 1986-2018 Xilinx, Inc. All Rights Reserved.
-------------------------------------------------------------------------------------------------------------------------------------------------------------------
| Tool Version     : Vivado v.2018.2 (win64) Build 2258646 Thu Jun 14 20:03:12 MDT 2018
| Date             : Sat Dec  5 21:47:13 2020
| Host             : DESKTOP-PNS2FA1 running 64-bit major release  (build 9200)
| Command          : report_power -file OSEEAoscope_TOP_power_routed.rpt -pb OSEEAoscope_TOP_power_summary_routed.pb -rpx OSEEAoscope_TOP_power_routed.rpx
| Design           : OSEEAoscope_TOP
| Device           : xc7a100tcsg324-1
| Design State     : routed
| Grade            : commercial
| Process          : typical
| Characterization : Production
-------------------------------------------------------------------------------------------------------------------------------------------------------------------

Power Report

Table of Contents
-----------------
1. Summary
1.1 On-Chip Components
1.2 Power Supply Summary
1.3 Confidence Level
2. Settings
2.1 Environment
2.2 Clock Constraints
3. Detailed Reports
3.1 By Hierarchy

1. Summary
----------

+--------------------------+--------------+
| Total On-Chip Power (W)  | 0.334        |
| Design Power Budget (W)  | Unspecified* |
| Power Budget Margin (W)  | NA           |
| Dynamic (W)              | 0.235        |
| Device Static (W)        | 0.098        |
| Effective TJA (C/W)      | 4.6          |
| Max Ambient (C)          | 83.5         |
| Junction Temperature (C) | 26.5         |
| Confidence Level         | Low          |
| Setting File             | ---          |
| Simulation Activity File | ---          |
| Design Nets Matched      | NA           |
+--------------------------+--------------+
* Specify Design Power Budget using, set_operating_conditions -design_power_budget <value in Watts>


1.1 On-Chip Components
----------------------

+-------------------------+-----------+----------+-----------+-----------------+
| On-Chip                 | Power (W) | Used     | Available | Utilization (%) |
+-------------------------+-----------+----------+-----------+-----------------+
| Clocks                  |     0.011 |        8 |       --- |             --- |
| Slice Logic             |     0.030 |    16547 |       --- |             --- |
|   LUT as Logic          |     0.026 |     8919 |     63400 |           14.07 |
|   CARRY4                |     0.004 |     2481 |     15850 |           15.65 |
|   Register              |    <0.001 |     1541 |    126800 |            1.22 |
|   LUT as Shift Register |    <0.001 |      101 |     19000 |            0.53 |
|   F7/F8 Muxes           |    <0.001 |       64 |     63400 |            0.10 |
|   Others                |     0.000 |      198 |       --- |             --- |
| Signals                 |     0.032 |     7835 |       --- |             --- |
| Block RAM               |     0.026 |       13 |       135 |            9.63 |
| MMCM                    |     0.123 |        1 |         6 |           16.67 |
| DSPs                    |     0.009 |       12 |       240 |            5.00 |
| I/O                     |     0.002 |       29 |       210 |           13.81 |
| XADC                    |     0.002 |        1 |       --- |             --- |
| Static Power            |     0.098 |          |           |                 |
| Total                   |     0.334 |          |           |                 |
+-------------------------+-----------+----------+-----------+-----------------+


1.2 Power Supply Summary
------------------------

+-----------+-------------+-----------+-------------+------------+
| Source    | Voltage (V) | Total (A) | Dynamic (A) | Static (A) |
+-----------+-------------+-----------+-------------+------------+
| Vccint    |       1.000 |     0.123 |       0.107 |      0.016 |
| Vccaux    |       1.800 |     0.086 |       0.068 |      0.018 |
| Vcco33    |       3.300 |     0.005 |       0.001 |      0.004 |
| Vcco25    |       2.500 |     0.000 |       0.000 |      0.000 |
| Vcco18    |       1.800 |     0.000 |       0.000 |      0.000 |
| Vcco15    |       1.500 |     0.000 |       0.000 |      0.000 |
| Vcco135   |       1.350 |     0.000 |       0.000 |      0.000 |
| Vcco12    |       1.200 |     0.000 |       0.000 |      0.000 |
| Vccaux_io |       1.800 |     0.000 |       0.000 |      0.000 |
| Vccbram   |       1.000 |     0.003 |       0.002 |      0.001 |
| MGTAVcc   |       1.000 |     0.000 |       0.000 |      0.000 |
| MGTAVtt   |       1.200 |     0.000 |       0.000 |      0.000 |
| Vccadc    |       1.800 |     0.021 |       0.001 |      0.020 |
+-----------+-------------+-----------+-------------+------------+


1.3 Confidence Level
--------------------

+-----------------------------+------------+--------------------------------------------------------+------------------------------------------------------------------------------------------------------------+
| User Input Data             | Confidence | Details                                                | Action                                                                                                     |
+-----------------------------+------------+--------------------------------------------------------+------------------------------------------------------------------------------------------------------------+
| Design implementation state | High       | Design is routed                                       |                                                                                                            |
| Clock nodes activity        | High       | User specified more than 95% of clocks                 |                                                                                                            |
| I/O nodes activity          | Low        | More than 75% of inputs are missing user specification | Provide missing input activity with simulation results or by editing the "By Resource Type -> I/Os" view   |
| Internal nodes activity     | Medium     | User specified less than 25% of internal nodes         | Provide missing internal nodes activity with simulation results or by editing the "By Resource Type" views |
| Device models               | High       | Device models are Production                           |                                                                                                            |
|                             |            |                                                        |                                                                                                            |
| Overall confidence level    | Low        |                                                        |                                                                                                            |
+-----------------------------+------------+--------------------------------------------------------+------------------------------------------------------------------------------------------------------------+


2. Settings
-----------

2.1 Environment
---------------

+-----------------------+--------------------------+
| Ambient Temp (C)      | 25.0                     |
| ThetaJA (C/W)         | 4.6                      |
| Airflow (LFM)         | 250                      |
| Heat Sink             | medium (Medium Profile)  |
| ThetaSA (C/W)         | 4.6                      |
| Board Selection       | medium (10"x10")         |
| # of Board Layers     | 12to15 (12 to 15 Layers) |
| Board Temperature (C) | 25.0                     |
+-----------------------+--------------------------+


2.2 Clock Constraints
---------------------

+----------------------+-------------------------------------+-----------------+
| Clock                | Domain                              | Constraint (ns) |
+----------------------+-------------------------------------+-----------------+
| clk                  | clk                                 |            10.0 |
| clk_out1_clk_wiz_0   | clk_wiz_vga/inst/clk_out1_clk_wiz_0 |             9.3 |
| clk_out1_clk_wiz_0_1 | clk_wiz_vga/inst/clk_out1_clk_wiz_0 |             9.3 |
| clkfbout_clk_wiz_0   | clk_wiz_vga/inst/clkfbout_clk_wiz_0 |            10.0 |
| clkfbout_clk_wiz_0_1 | clk_wiz_vga/inst/clkfbout_clk_wiz_0 |            10.0 |
| sys_clk_pin          | clk                                 |            10.0 |
+----------------------+-------------------------------------+-----------------+


3. Detailed Reports
-------------------

3.1 By Hierarchy
----------------

+------------------------------------------------+-----------+
| Name                                           | Power (W) |
+------------------------------------------------+-----------+
| OSEEAoscope_TOP                                |     0.235 |
|   ADCC                                         |     0.003 |
|   AUTO                                         |    <0.001 |
|   BIN2DEC_TIMEDIV                              |    <0.001 |
|   BUFF_CH1                                     |     0.011 |
|     bram0                                      |     0.005 |
|       U0                                       |     0.005 |
|         inst_blk_mem_gen                       |     0.005 |
|           gnbram.gnativebmg.native_blk_mem_gen |     0.005 |
|             valid.cstr                         |     0.005 |
|               ramloop[0].ram.r                 |     0.002 |
|                 prim_init.ram                  |     0.002 |
|               ramloop[1].ram.r                 |     0.003 |
|                 prim_init.ram                  |     0.003 |
|     bram1                                      |     0.005 |
|       U0                                       |     0.005 |
|         inst_blk_mem_gen                       |     0.005 |
|           gnbram.gnativebmg.native_blk_mem_gen |     0.005 |
|             valid.cstr                         |     0.005 |
|               ramloop[0].ram.r                 |     0.002 |
|                 prim_init.ram                  |     0.002 |
|               ramloop[1].ram.r                 |     0.003 |
|                 prim_init.ram                  |     0.003 |
|   BUFF_CH2                                     |     0.011 |
|     bram0                                      |     0.005 |
|       U0                                       |     0.005 |
|         inst_blk_mem_gen                       |     0.005 |
|           gnbram.gnativebmg.native_blk_mem_gen |     0.005 |
|             valid.cstr                         |     0.005 |
|               ramloop[0].ram.r                 |     0.002 |
|                 prim_init.ram                  |     0.002 |
|               ramloop[1].ram.r                 |     0.003 |
|                 prim_init.ram                  |     0.003 |
|     bram1                                      |     0.005 |
|       U0                                       |     0.005 |
|         inst_blk_mem_gen                       |     0.005 |
|           gnbram.gnativebmg.native_blk_mem_gen |     0.005 |
|             valid.cstr                         |     0.005 |
|               ramloop[0].ram.r                 |     0.002 |
|                 prim_init.ram                  |     0.002 |
|               ramloop[1].ram.r                 |     0.003 |
|                 prim_init.ram                  |     0.003 |
|   BUFF_SEL                                     |    <0.001 |
|   CENTER                                       |    <0.001 |
|   CH_TOGGLE                                    |    <0.001 |
|   CURSOR1                                      |    <0.001 |
|   CURSOR1_TOTEXT                               |    <0.001 |
|     BIN2DEC                                    |    <0.001 |
|     CURSOR2VOLT                                |    <0.001 |
|   CURSOR2                                      |     0.001 |
|   CURSOR2_TOTEXT                               |    <0.001 |
|     BIN2DEC                                    |    <0.001 |
|     CURSOR2VOLT                                |    <0.001 |
|   DOWN                                         |    <0.001 |
|   DRAW_TRIGGER                                 |    <0.001 |
|   DRAW_WAVE_CH1                                |     0.003 |
|   DRAW_WAVE_CH2                                |     0.002 |
|   FILTER                                       |     0.002 |
|   FILTER2                                      |     0.003 |
|   GRID                                         |    <0.001 |
|   LOOKUP                                       |     0.011 |
|     characterBRAM2                             |     0.004 |
|       U0                                       |     0.004 |
|         inst_blk_mem_gen                       |     0.004 |
|           gnbram.gnativebmg.native_blk_mem_gen |     0.004 |
|             valid.cstr                         |     0.004 |
|               bindec_a.bindec_inst_a           |    <0.001 |
|               bindec_b.bindec_inst_b           |     0.000 |
|               has_mux_a.A                      |    <0.001 |
|               ramloop[0].ram.r                 |     0.004 |
|                 prim_init.ram                  |     0.004 |
|               ramloop[1].ram.r                 |    <0.001 |
|                 prim_init.ram                  |    <0.001 |
|               ramloop[2].ram.r                 |    <0.001 |
|                 prim_init.ram                  |    <0.001 |
|   MEASURE_SIGNAL_CH1                           |     0.017 |
|   MEASURE_SIGNAL_CH2                           |     0.018 |
|   OS_AUTO                                      |    <0.001 |
|   OS_CNT                                       |    <0.001 |
|   OS_DN                                        |    <0.001 |
|   OS_UP                                        |    <0.001 |
|   SETTINGS                                     |     0.001 |
|   TEXT                                         |     0.014 |
|     characterBRAM                              |     0.002 |
|       U0                                       |     0.002 |
|         inst_blk_mem_gen                       |     0.002 |
|           gnbram.gnativebmg.native_blk_mem_gen |     0.002 |
|             valid.cstr                         |     0.002 |
|               bindec_a.bindec_inst_a           |    <0.001 |
|               bindec_b.bindec_inst_b           |     0.000 |
|               has_mux_a.A                      |    <0.001 |
|               ramloop[0].ram.r                 |     0.002 |
|                 prim_init.ram                  |     0.002 |
|               ramloop[1].ram.r                 |    <0.001 |
|                 prim_init.ram                  |    <0.001 |
|               ramloop[2].ram.r                 |    <0.001 |
|                 prim_init.ram                  |    <0.001 |
|   TIME_DIV                                     |    <0.001 |
|   TOGGLE_CHA                                   |    <0.001 |
|   TRIGGER                                      |    <0.001 |
|   UP                                           |    <0.001 |
|   VERT_SCALE                                   |    <0.001 |
|   VGA_CONTRL                                   |    <0.001 |
|   VOLTSDIV_TO_TEXT                             |    <0.001 |
|     BIN2DEC                                    |    <0.001 |
|     CURSOR2VOLT                                |    <0.001 |
|   XADC                                         |     0.002 |
|   clk_wiz_vga                                  |     0.124 |
|     inst                                       |     0.124 |
+------------------------------------------------+-----------+


